0x006b	r1eb01 mlx5_1
0x016c	r1eb01 mlx5_0
0x009d	r1eb02 mlx5_1
0x0110	r1eb02 mlx5_0
0x0104	r1eb03 mlx5_1
0x0069	r1eb03 mlx5_0
0x00f3	r1eb04 mlx5_1
0x00de	r1eb04 mlx5_0
0x0045	r1eb05 mlx5_1
0x005f	r1eb05 mlx5_0
0x00fc	r1eb06 mlx5_1
0x0037	r1eb06 mlx5_0
0x0033	r1eb07 mlx5_1
0x0028	r1eb07 mlx5_0
0x010c	r1eb08 mlx5_1
0x0054	r1eb08 mlx5_0
0x0060	r1eb09 mlx5_1
0x0040	r1eb09 mlx5_0
0xFFFF	DUMMY
0xFFFF	DUMMY
0x0138	uaeb10 mlx5_1
0x0126	uaeb10 mlx5_0
0x0061	uaeb11 mlx5_1
0x013b	uaeb11 mlx5_0
0x00bb	uaeb12 mlx5_1
0x00b1	uaeb12 mlx5_0
0x0130	uaeb13 mlx5_1
0x0166	uaeb13 mlx5_0
0x0168	uaeb14 mlx5_1
0x001a	uaeb14 mlx5_0
0x0172	uaeb15 mlx5_1
0x00e9	uaeb15 mlx5_0
0x0123	uaeb16 mlx5_1
0x0093	uaeb16 mlx5_0
0x00d4	uaeb18 mlx5_1
0x008a	uaeb18 mlx5_0
0xFFFF	DUMMY
0xFFFF	DUMMY
0xFFFF	DUMMY
0xFFFF	DUMMY
0x0121	uaeb01 mlx5_1
0x0091	uaeb01 mlx5_0
0x0149	uaeb02 mlx5_1
0x011e	uaeb02 mlx5_0
0x0029	uaeb03 mlx5_1
0x0099	uaeb03 mlx5_0
0x00ac	uaeb04 mlx5_1
0x001d	uaeb04 mlx5_0
0x012c	uaeb05 mlx5_1
0x003b	uaeb05 mlx5_0
0x015f	uaeb07 mlx5_1
0x0081	uaeb07 mlx5_0
0x00e5	uaeb08 mlx5_1
0x00e0	uaeb08 mlx5_0
0x0056	uaeb09 mlx5_1
0x0012	uaeb09 mlx5_0
0xFFFF	DUMMY
0xFFFF	DUMMY
0xFFFF	DUMMY
0xFFFF	DUMMY
0x0171	uceb09 mlx5_1
0x002e	uceb09 mlx5_0
0x0140	uceb10 mlx5_1
0x011b	uceb10 mlx5_0
0x014f	uceb11 mlx5_1
0x0146	uceb11 mlx5_0
0x016d	uceb12 mlx5_1
0x003f	uceb12 mlx5_0
0x0105	uceb13 mlx5_1
0x0155	uceb13 mlx5_0
0x0018	uceb14 mlx5_1
0x013a	uceb14 mlx5_0
0x0167	uceb15 mlx5_1
0x000c	uceb15 mlx5_0
0x012b	uceb16 mlx5_1
0x002d	uceb16 mlx5_0
0x013f	uceb17 mlx5_1
0x002a	uceb17 mlx5_0
0x0016	uceb18 mlx5_1
0x00d1	uceb18 mlx5_0
0x015a	uceb01 mlx5_1
0x00f4	uceb01 mlx5_0
0x00d6	uceb02 mlx5_1
0x0015	uceb02 mlx5_0
0x00fd	uceb03 mlx5_1
0x0132	uceb03 mlx5_0
0x00c0	uceb04 mlx5_1
0x0174	uceb04 mlx5_0
0x00a4	uceb05 mlx5_1
0x0003	uceb05 mlx5_0
0x00da	uceb06 mlx5_1
0x001b	uceb06 mlx5_0
0x0006	uceb07 mlx5_1
0x000b	uceb07 mlx5_0
0x0031	uceb08 mlx5_1
0x002c	uceb08 mlx5_0
0xFFFF	DUMMY
0xFFFF	DUMMY
0xFFFF	DUMMY
0xFFFF	DUMMY
0x015e	mceb01 mlx5_1
0x008d	mceb01 mlx5_0
0x0073	mceb02 mlx5_1
0x0005	mceb02 mlx5_0
0x016b	mceb03 mlx5_1
0x0165	mceb03 mlx5_0
0x0076	mceb04 mlx5_1
0x007c	mceb04 mlx5_0
0x0017	maeb01 mlx5_1
0x0050	maeb01 mlx5_0
0x0163	maeb02 mlx5_1
0x002b	maeb02 mlx5_0
0x000a	maeb03 mlx5_1
0x0148	maeb03 mlx5_0
0x0087	maeb04 mlx5_1
0x0080	maeb04 mlx5_0
0xFFFF	DUMMY
0xFFFF	DUMMY
0xFFFF	DUMMY
0xFFFF	DUMMY
0x0144	tdeb01 mlx5_1
0x0002	tdeb01 mlx5_0
0x00e7	tdeb02 mlx5_1
0x0001	tdeb02 mlx5_0
0x0101	tdeb03 mlx5_1
0x00e1	tdeb03 mlx5_0
0x00cf	tdeb04 mlx5_1
0x0108	tdeb04 mlx5_0
0x00f7	tdeb05 mlx5_1
0x00ef	tdeb05 mlx5_0
0x0008	tdeb06 mlx5_1
0x0151	tdeb06 mlx5_0
0x000e	tdeb07 mlx5_1
0x0147	tdeb07 mlx5_0
0x0122	tdeb08 mlx5_1
0x011c	tdeb08 mlx5_0
0x0133	tdeb09 mlx5_1
0x0141	tdeb09 mlx5_0
0x014a	tdeb10 mlx5_1
0x013c	tdeb10 mlx5_0
0x00b0	sceb15 mlx5_1
0x0118	sceb15 mlx5_0
0x013e	sceb16 mlx5_1
0x00d7	sceb16 mlx5_0
0x00cc	sceb17 mlx5_1
0x0092	sceb17 mlx5_0
0x009a	sceb18 mlx5_1
0x00a7	sceb18 mlx5_0
0x00f9	sceb19 mlx5_1
0x00d0	sceb19 mlx5_0
0x0067	sceb20 mlx5_1
0x00f2	sceb20 mlx5_0
0x00f1	sceb21 mlx5_1
0x00a3	sceb21 mlx5_0
0x00af	sceb22 mlx5_1
0x009c	sceb22 mlx5_0
0x0098	sceb23 mlx5_1
0x009b	sceb23 mlx5_0
0x006a	sceb24 mlx5_1
0x0065	sceb24 mlx5_0
0x0074	sceb05 mlx5_1
0x0052	sceb05 mlx5_0
0x00a1	sceb06 mlx5_1
0x001c	sceb06 mlx5_0
0x00ab	sceb07 mlx5_1
0x00cb	sceb07 mlx5_0
0x006d	sceb08 mlx5_1
0x0046	sceb08 mlx5_0
0x007d	sceb09 mlx5_1
0x0041	sceb09 mlx5_0
0x010e	sceb10 mlx5_1
0x0160	sceb10 mlx5_0
0x0024	sceb11 mlx5_1
0x0078	sceb11 mlx5_0
0x00b4	sceb12 mlx5_1
0x0089	sceb12 mlx5_0
0x011a	sceb13 mlx5_1
0x00a2	sceb13 mlx5_0
0x00a5	sceb14 mlx5_1
0x00ad	sceb14 mlx5_0
0x0106	sceb01 mlx5_1
0x00f5	sceb01 mlx5_0
0x00fe	sceb02 mlx5_1
0x004c	sceb02 mlx5_0
0x012a	sceb03 mlx5_1
0x0120	sceb03 mlx5_0
0x015b	sceb04 mlx5_1
0x0150	sceb04 mlx5_0
0x0019	saeb20 mlx5_1
0x0042	saeb20 mlx5_0
0x0156	saeb21 mlx5_1
0x00c1	saeb21 mlx5_0
0x006e	saeb22 mlx5_1
0x0068	saeb22 mlx5_0
0x012d	saeb23 mlx5_1
0x004e	saeb23 mlx5_0
0x0053	saeb24 mlx5_1
0x00c6	saeb24 mlx5_0
0xFFFF	DUMMY
0xFFFF	DUMMY
0x0134	saeb10 mlx5_1
0x0075	saeb10 mlx5_0
0x003c	saeb11 mlx5_1
0x00ae	saeb11 mlx5_0
0x0058	saeb12 mlx5_0
0x00a6	saeb12 mlx5_1
0x00b6	saeb13 mlx5_1
0x0161	saeb13 mlx5_0
0x00bf	saeb14 mlx5_1
0x0047	saeb14 mlx5_0
0x0034	saeb15 mlx5_1
0x012e	saeb15 mlx5_0
0x0145	saeb16 mlx5_1
0x0159	saeb16 mlx5_0
0x0143	saeb17 mlx5_1
0x00c3	saeb17 mlx5_0
0x0119	saeb18 mlx5_1
0x011d	saeb18 mlx5_0
0x013d	saeb19 mlx5_1
0x0152	saeb19 mlx5_0
0x0131	saeb01 mlx5_1
0x0088	saeb01 mlx5_0
0x005d	saeb02 mlx5_1
0x00ff	saeb02 mlx5_0
0x0082	saeb03 mlx5_1
0x0022	saeb03 mlx5_0
0x000d	saeb04 mlx5_1
0x0004	saeb04 mlx5_0
0x0013	saeb05 mlx5_1
0x0113	saeb05 mlx5_0
0x0090	saeb06 mlx5_1
0x00db	saeb06 mlx5_0
0x0154	saeb07 mlx5_1
0x010d	saeb07 mlx5_0
0x0127	saeb08 mlx5_1
0x008e	saeb08 mlx5_0
0x00e4	saeb09 mlx5_1
0x00ec	saeb09 mlx5_0
0xFFFF	DUMMY
0xFFFF	DUMMY
0x00c5	vaeb01 mlx5_1
0x00b5	vaeb01 mlx5_0
0x00ed	vaeb02 mlx5_1
0x008f	vaeb02 mlx5_0
0x00e3	vaeb03 mlx5_1
0x00d9	vaeb03 mlx5_0
0x011f	vaeb04 mlx5_1
0x0170	vaeb04 mlx5_0
0x003e	vaeb05 mlx5_1
0x0023	vaeb05 mlx5_0
0x014e	vaeb06 mlx5_1
0x0129	vaeb06 mlx5_0
0x003d	vaeb07 mlx5_1
0x0085	vaeb07 mlx5_0
0x0010	vaeb08 mlx5_1
0x0096	vaeb08 mlx5_0
0x007e	vaeb09 mlx5_1
0x008b	vaeb09 mlx5_0
0x0021	vaeb10 mlx5_1
0x0139	vaeb10 mlx5_0
0x004a	r1eb10 mlx5_1
0x005b	r1eb10 mlx5_0
0x0038	r1eb11 mlx5_1
0x0066	r1eb11 mlx5_0
0x0035	r1eb12 mlx5_1
0x003a	r1eb12 mlx5_0
0x0077	r1eb13 mlx5_1
0x006c	r1eb13 mlx5_0
0x0032	r1eb14 mlx5_1
0x00bd	r1eb14 mlx5_0
0x0039	r1eb15 mlx5_1
0x0051	r1eb15 mlx5_0
0x0055	r1eb16 mlx5_0
0x004b	r1eb17 mlx5_1
0x005c	r1eb17 mlx5_0
0x0114	r1eb18 mlx5_1
0x015c	r1eb18 mlx5_0
0xFFFF	DUMMY
0xFFFF	DUMMY
0xFFFF	DUMMY
0x008c	eceb01 mlx5_1
0x0097	eceb01 mlx5_0
0x005a	eceb02 mlx5_1
0x00a0	eceb02 mlx5_0
0x0064	eceb03 mlx5_1
0x0072	eceb03 mlx5_0
0x0102	hceb01 mlx5_1
0x00dc	hceb01 mlx5_0
0x00aa	r2eb01 mlx5_1
0x012f	r2eb01 mlx5_0
0x00b3	r2eb02 mlx5_1
0x0049	r2eb02 mlx5_0
0x0112	r2eb03 mlx5_1
0x0128	r2eb03 mlx5_0
0x00df	r1eb19 mlx5_1
0x0030	r1eb19 mlx5_0
0x0164	r1eb20 mlx5_1
0x016f	r1eb20 mlx5_0
0xFFFF	DUMMY
0xFFFF	DUMMY
0x005e	eceb04 mlx5_1
0x0057	eceb04 mlx5_0
0x00f8	eceb05 mlx5_1
0x00d3	eceb05 mlx5_0
0x00e2	eceb06 mlx5_1
0x00f0	eceb06 mlx5_0
0x00e8	hceb02 mlx5_1
0x00d8	hceb02 mlx5_0
0x0086	r2eb04 mlx5_1
0x007f	r2eb04 mlx5_0
0x0137	r2eb05 mlx5_1
0x014c	r2eb05 mlx5_0
0x0007	r2eb06 mlx5_1
0x0158	r2eb06 mlx5_0
0x00ce	r1eb21 mlx5_1
0x00be	r1eb21 mlx5_0
0x00b2	r1eb22 mlx5_1
0x0027	r1eb22 mlx5_0
0xFFFF	DUMMY
0xFFFF	DUMMY
0x0107	eceb07 mlx5_1
0x0048	eceb07 mlx5_0
0x0100	eceb08 mlx5_1
0x0103	eceb08 mlx5_0
0x0043	eceb09 mlx5_1
0x014d	eceb09 mlx5_0
0x00e6	hceb03 mlx5_1
0x00f6	hceb03 mlx5_0
0x0153	r2eb07 mlx5_1
0x0011	r2eb07 mlx5_0
0x00d2	r2eb08 mlx5_1
0x0020	r2eb08 mlx5_0
0x015d	r2eb09 mlx5_1
0x016a	r2eb09 mlx5_0
0xFFFF	DUMMY
0xFFFF	DUMMY
0xFFFF	DUMMY
0xFFFF	DUMMY
0xFFFF	DUMMY
0xFFFF	DUMMY
0x004d	eceb11 mlx5_1
0x0062	eceb11 mlx5_0
0x0169	eceb12 mlx5_1
0x0173	eceb12 mlx5_0
0x00ee	hceb04 mlx5_1
0x010f	hceb04 mlx5_0
0x000f	r2eb10 mlx5_1
0x00cd	r2eb10 mlx5_0
0x00c4	r2eb11 mlx5_1
0x00bc	r2eb11 mlx5_0
0x00c2	r2eb12 mlx5_1
0x0111	r2eb12 mlx5_0
0xFFFF	DUMMY
0xFFFF	DUMMY
0xFFFF	DUMMY
0xFFFF	DUMMY
0xFFFF	DUMMY
0xFFFF	DUMMY
0xFFFF	DUMMY
0xFFFF	DUMMY
