Switch: guid 0x7cfe900300198b00
0x0002: 00 ff ff ff ff ff ff ff ff ff ff ff ff ff ff ff ff ff ff 02 02 02 02 02 02 02 02 02 02 02 02 02 02 02 02 02 02 # portguid 0x7cfe900300198b00
0x0008: 02 ff ff ff ff ff ff ff ff ff ff ff ff ff ff ff ff ff ff 02 02 02 02 02 02 02 02 02 02 02 02 02 02 02 02 02 02 # portguid 0xe41d2d0300bfaf40
0x000a: 02 ff ff ff ff ff ff ff ff ff ff ff ff ff ff ff ff ff ff 02 02 02 02 02 02 02 02 02 02 02 02 02 02 02 02 02 02 # portguid 0xe41d2d0300b13660
0x000b: 01 ff ff ff ff ff ff ff ff ff ff ff ff ff ff ff ff ff ff 03 03 03 03 03 03 01 01 01 01 01 01 03 03 03 03 03 03 # portguid 0xe41d2d0300bfaf60
0x000c: 01 ff ff ff ff ff ff ff ff ff ff ff ff ff ff ff ff ff ff 01 01 01 01 01 01 03 03 03 03 03 03 03 03 03 03 03 03 # portguid 0xe41d2d0300bfb960
0x000e: 01 ff ff ff ff ff ff ff ff ff ff ff ff ff ff ff ff ff ff 03 03 03 03 03 03 03 03 03 03 03 03 01 01 01 01 01 01 # portguid 0xe41d2d0300bfb980
Switch: guid 0xe41d2d0300bfaf40
0x0002: 02 02 02 02 02 02 02 02 02 02 02 02 02 02 02 02 02 02 02 ff ff ff ff ff ff ff ff ff ff ff ff ff ff ff ff ff ff # portguid 0x7cfe900300198b00
0x0008: 00 02 02 02 02 02 02 02 02 02 02 02 02 02 02 02 02 02 02 ff ff ff ff ff ff ff ff ff ff ff ff ff ff ff ff ff ff # portguid 0xe41d2d0300bfaf40
0x000a: 02 02 02 02 02 02 02 02 02 02 02 02 02 02 02 02 02 02 02 ff ff ff ff ff ff ff ff ff ff ff ff ff ff ff ff ff ff # portguid 0xe41d2d0300b13660
0x000b: 01 01 01 01 01 01 01 03 03 03 03 03 03 03 03 03 03 03 03 ff ff ff ff ff ff ff ff ff ff ff ff ff ff ff ff ff ff # portguid 0xe41d2d0300bfaf60
0x000c: 01 03 03 03 03 03 03 03 03 03 03 03 03 01 01 01 01 01 01 ff ff ff ff ff ff ff ff ff ff ff ff ff ff ff ff ff ff # portguid 0xe41d2d0300bfb960
0x000e: 01 03 03 03 03 03 03 01 01 01 01 01 01 03 03 03 03 03 03 ff ff ff ff ff ff ff ff ff ff ff ff ff ff ff ff ff ff # portguid 0xe41d2d0300bfb980
Switch: guid 0xe41d2d0300b13660
0x0002: 02 02 02 02 02 02 02 02 02 02 02 02 02 02 02 02 02 02 02 ff ff ff ff ff ff ff ff ff ff ff ff ff ff ff ff ff ff # portguid 0x7cfe900300198b00
0x0008: 02 02 02 02 02 02 02 02 02 02 02 02 02 02 02 02 02 02 02 ff ff ff ff ff ff ff ff ff ff ff ff ff ff ff ff ff ff # portguid 0xe41d2d0300bfaf40
0x000a: 00 02 02 02 02 02 02 02 02 02 02 02 02 02 02 02 02 02 02 ff ff ff ff ff ff ff ff ff ff ff ff ff ff ff ff ff ff # portguid 0xe41d2d0300b13660
0x000b: 01 01 01 01 01 01 01 03 03 03 03 03 03 03 03 03 03 03 03 ff ff ff ff ff ff ff ff ff ff ff ff ff ff ff ff ff ff # portguid 0xe41d2d0300bfaf60
0x000c: 01 03 03 03 03 03 03 03 03 03 03 03 03 01 01 01 01 01 01 ff ff ff ff ff ff ff ff ff ff ff ff ff ff ff ff ff ff # portguid 0xe41d2d0300bfb960
0x000e: 01 03 03 03 03 03 03 01 01 01 01 01 01 03 03 03 03 03 03 ff ff ff ff ff ff ff ff ff ff ff ff ff ff ff ff ff ff # portguid 0xe41d2d0300bfb980
Switch: guid 0xe41d2d0300bfaf60
0x0002: 01 ff ff ff ff ff ff 01 01 01 01 01 01 ff ff ff ff ff ff 03 03 03 03 03 03 03 03 03 03 03 03 ff ff ff ff ff ff # portguid 0x7cfe900300198b00
0x0008: 01 ff ff ff ff ff ff 03 03 03 03 03 03 ff ff ff ff ff ff 01 01 01 01 01 01 03 03 03 03 03 03 ff ff ff ff ff ff # portguid 0xe41d2d0300bfaf40
0x000a: 01 ff ff ff ff ff ff 03 03 03 03 03 03 ff ff ff ff ff ff 03 03 03 03 03 03 01 01 01 01 01 01 ff ff ff ff ff ff # portguid 0xe41d2d0300b13660
0x000b: 00 ff ff ff ff ff ff 02 02 02 02 02 02 ff ff ff ff ff ff 02 02 02 02 02 02 02 02 02 02 02 02 ff ff ff ff ff ff # portguid 0xe41d2d0300bfaf60
0x000c: 02 ff ff ff ff ff ff 02 02 02 02 02 02 ff ff ff ff ff ff 02 02 02 02 02 02 02 02 02 02 02 02 ff ff ff ff ff ff # portguid 0xe41d2d0300bfb960
0x000e: 02 ff ff ff ff ff ff 02 02 02 02 02 02 ff ff ff ff ff ff 02 02 02 02 02 02 02 02 02 02 02 02 ff ff ff ff ff ff # portguid 0xe41d2d0300bfb980
Switch: guid 0xe41d2d0300bfb960
0x0002: 01 ff ff ff ff ff ff 01 01 01 01 01 01 ff ff ff ff ff ff 03 03 03 03 03 03 03 03 03 03 03 03 ff ff ff ff ff ff # portguid 0x7cfe900300198b00
0x0008: 01 ff ff ff ff ff ff 03 03 03 03 03 03 ff ff ff ff ff ff 01 01 01 01 01 01 03 03 03 03 03 03 ff ff ff ff ff ff # portguid 0xe41d2d0300bfaf40
0x000a: 01 ff ff ff ff ff ff 03 03 03 03 03 03 ff ff ff ff ff ff 03 03 03 03 03 03 01 01 01 01 01 01 ff ff ff ff ff ff # portguid 0xe41d2d0300b13660
0x000b: 02 ff ff ff ff ff ff 02 02 02 02 02 02 ff ff ff ff ff ff 02 02 02 02 02 02 02 02 02 02 02 02 ff ff ff ff ff ff # portguid 0xe41d2d0300bfaf60
0x000c: 00 ff ff ff ff ff ff 02 02 02 02 02 02 ff ff ff ff ff ff 02 02 02 02 02 02 02 02 02 02 02 02 ff ff ff ff ff ff # portguid 0xe41d2d0300bfb960
0x000e: 02 ff ff ff ff ff ff 02 02 02 02 02 02 ff ff ff ff ff ff 02 02 02 02 02 02 02 02 02 02 02 02 ff ff ff ff ff ff # portguid 0xe41d2d0300bfb980
Switch: guid 0xe41d2d0300bfb980
0x0002: 01 ff ff ff ff ff ff 01 01 01 01 01 01 ff ff ff ff ff ff 03 03 03 03 03 03 03 03 03 03 03 03 ff ff ff ff ff ff # portguid 0x7cfe900300198b00
0x0008: 01 ff ff ff ff ff ff 03 03 03 03 03 03 ff ff ff ff ff ff 01 01 01 01 01 01 03 03 03 03 03 03 ff ff ff ff ff ff # portguid 0xe41d2d0300bfaf40
0x000a: 01 ff ff ff ff ff ff 03 03 03 03 03 03 ff ff ff ff ff ff 03 03 03 03 03 03 01 01 01 01 01 01 ff ff ff ff ff ff # portguid 0xe41d2d0300b13660
0x000b: 02 ff ff ff ff ff ff 02 02 02 02 02 02 ff ff ff ff ff ff 02 02 02 02 02 02 02 02 02 02 02 02 ff ff ff ff ff ff # portguid 0xe41d2d0300bfaf60
0x000c: 02 ff ff ff ff ff ff 02 02 02 02 02 02 ff ff ff ff ff ff 02 02 02 02 02 02 02 02 02 02 02 02 ff ff ff ff ff ff # portguid 0xe41d2d0300bfb960
0x000e: 00 ff ff ff ff ff ff 02 02 02 02 02 02 ff ff ff ff ff ff 02 02 02 02 02 02 02 02 02 02 02 02 ff ff ff ff ff ff # portguid 0xe41d2d0300bfb980
