Unicast lids [0-18] of switch Lid 2 guid 0x7cfe900300198b00 ('MF0;rack2-switch1:MSB7700/U1'):
0x0001 023 # Channel Adapter portguid 0x7cfe9003005845fd: 'node002 HCA-1'
0x0002 000 # Switch portguid 0x7cfe900300198b00: 'MF0;rack2-switch1:MSB7700/U1'
0x0003 003 # Channel Adapter portguid 0x7cfe900300268811: 'node076 HCA-1'
0x0004 004 # Channel Adapter portguid 0x7cfe900300268a39: 'node072 HCA-1'
0x0005 022 # Channel Adapter portguid 0xe41d2d030062113f: 'node033 HCA-1'
0x0006 020 # Switch portguid 0xe41d2d0300bfaf40: 'SwitchIB Mellanox Technologies'
0x0007 006 # Channel Adapter portguid 0x7cfe90030026885d: 'node075 HCA-1'
0x0008 021 # Switch portguid 0xe41d2d0300b13660: 'MF0;rack1-switch2:MSB7700/U1'
0x0009 026 # Switch portguid 0xe41d2d0300bfaf60: 'SwitchIB Mellanox Technologies'
0x000a 023 # Switch portguid 0xe41d2d0300bfb960: 'SwitchIB Mellanox Technologies'
0x000b 036 # Switch portguid 0xe41d2d0300bfb980: 'SwitchIB Mellanox Technologies'
0x000c 001 # Channel Adapter portguid 0x7cfe900300268999: 'node071 HCA-1'
0x000d 028 # Channel Adapter portguid 0x7cfe9003005845c5: 'node007 HCA-1'
0x000e 035 # Channel Adapter portguid 0xe41d2d030067b7c9: 'node034 HCA-1'
0x000f 027 # Channel Adapter portguid 0xe41d2d030067b7dd: 'node035 HCA-1'
0x0010 019 # Channel Adapter portguid 0x7cfe9003005843f1: 'node030 HCA-1'
0x0011 005 # Channel Adapter portguid 0x7cfe9003002687f9: 'node079 HCA-1'
0x0012 002 # Channel Adapter portguid 0x7cfe9003002687fd: 'node080 HCA-1'
18 lids dumped
Unicast lids [0-18] of switch Lid 6 guid 0xe41d2d0300bfaf40 ('SwitchIB Mellanox Technologies'):
0x0001 019 # Channel Adapter portguid 0x7cfe9003005845fd: 'node002 HCA-1'
0x0002 015 # Switch portguid 0x7cfe900300198b00: 'MF0;rack2-switch1:MSB7700/U1'
0x0003 011 # Channel Adapter portguid 0x7cfe900300268811: 'node076 HCA-1'
0x0004 018 # Channel Adapter portguid 0x7cfe900300268a39: 'node072 HCA-1'
0x0005 014 # Channel Adapter portguid 0xe41d2d030062113f: 'node033 HCA-1'
0x0006 000 # Switch portguid 0xe41d2d0300bfaf40: 'SwitchIB Mellanox Technologies'
0x0007 007 # Channel Adapter portguid 0x7cfe90030026885d: 'node075 HCA-1'
0x0008 013 # Switch portguid 0xe41d2d0300b13660: 'MF0;rack1-switch2:MSB7700/U1'
0x0009 002 # Switch portguid 0xe41d2d0300bfaf60: 'SwitchIB Mellanox Technologies'
0x000a 017 # Switch portguid 0xe41d2d0300bfb960: 'SwitchIB Mellanox Technologies'
0x000b 012 # Switch portguid 0xe41d2d0300bfb980: 'SwitchIB Mellanox Technologies'
0x000c 017 # Channel Adapter portguid 0x7cfe900300268999: 'node071 HCA-1'
0x000d 024 # Channel Adapter portguid 0x7cfe9003005845c5: 'node007 HCA-1'
0x000e 008 # Channel Adapter portguid 0xe41d2d030067b7c9: 'node034 HCA-1'
0x000f 005 # Channel Adapter portguid 0xe41d2d030067b7dd: 'node035 HCA-1'
0x0010 016 # Channel Adapter portguid 0x7cfe9003005843f1: 'node030 HCA-1'
0x0011 001 # Channel Adapter portguid 0x7cfe9003002687f9: 'node079 HCA-1'
0x0012 004 # Channel Adapter portguid 0x7cfe9003002687fd: 'node080 HCA-1'
18 lids dumped
Unicast lids [0-18] of switch Lid 8 guid 0xe41d2d0300b13660 ('MF0;rack1-switch2:MSB7700/U1'):
0x0001 015 # Channel Adapter portguid 0x7cfe9003005845fd: 'node002 HCA-1'
0x0002 014 # Switch portguid 0x7cfe900300198b00: 'MF0;rack2-switch1:MSB7700/U1'
0x0003 009 # Channel Adapter portguid 0x7cfe900300268811: 'node076 HCA-1'
0x0004 013 # Channel Adapter portguid 0x7cfe900300268a39: 'node072 HCA-1'
0x0005 019 # Channel Adapter portguid 0xe41d2d030062113f: 'node033 HCA-1'
0x0006 016 # Switch portguid 0xe41d2d0300bfaf40: 'SwitchIB Mellanox Technologies'
0x0007 011 # Channel Adapter portguid 0x7cfe90030026885d: 'node075 HCA-1'
0x0008 000 # Switch portguid 0xe41d2d0300b13660: 'MF0;rack1-switch2:MSB7700/U1'
0x0009 004 # Switch portguid 0xe41d2d0300bfaf60: 'SwitchIB Mellanox Technologies'
0x000a 017 # Switch portguid 0xe41d2d0300bfb960: 'SwitchIB Mellanox Technologies'
0x000b 012 # Switch portguid 0xe41d2d0300bfb980: 'SwitchIB Mellanox Technologies'
0x000c 017 # Channel Adapter portguid 0x7cfe900300268999: 'node071 HCA-1'
0x000d 006 # Channel Adapter portguid 0x7cfe9003005845c5: 'node007 HCA-1'
0x000e 023 # Channel Adapter portguid 0xe41d2d030067b7c9: 'node034 HCA-1'
0x000f 022 # Channel Adapter portguid 0xe41d2d030067b7dd: 'node035 HCA-1'
0x0010 024 # Channel Adapter portguid 0x7cfe9003005843f1: 'node030 HCA-1'
0x0011 005 # Channel Adapter portguid 0x7cfe9003002687f9: 'node079 HCA-1'
0x0012 002 # Channel Adapter portguid 0x7cfe9003002687fd: 'node080 HCA-1'
18 lids dumped
Unicast lids [0-18] of switch Lid 9 guid 0xe41d2d0300bfaf60 ('SwitchIB Mellanox Technologies'):
0x0001 020 # Channel Adapter portguid 0x7cfe9003005845fd: 'node002 HCA-1'
0x0002 009 # Switch portguid 0x7cfe900300198b00: 'MF0;rack2-switch1:MSB7700/U1'
0x0003 011 # Channel Adapter portguid 0x7cfe900300268811: 'node076 HCA-1'
0x0004 011 # Channel Adapter portguid 0x7cfe900300268a39: 'node072 HCA-1'
0x0005 028 # Channel Adapter portguid 0xe41d2d030062113f: 'node033 HCA-1'
0x0006 022 # Switch portguid 0xe41d2d0300bfaf40: 'SwitchIB Mellanox Technologies'
0x0007 009 # Channel Adapter portguid 0x7cfe90030026885d: 'node075 HCA-1'
0x0008 030 # Switch portguid 0xe41d2d0300b13660: 'MF0;rack1-switch2:MSB7700/U1'
0x0009 000 # Switch portguid 0xe41d2d0300bfaf60: 'SwitchIB Mellanox Technologies'
0x000c 012 # Channel Adapter portguid 0x7cfe900300268999: 'node071 HCA-1'
0x000d 020 # Channel Adapter portguid 0x7cfe9003005845c5: 'node007 HCA-1'
0x000e 025 # Channel Adapter portguid 0xe41d2d030067b7c9: 'node034 HCA-1'
0x000f 028 # Channel Adapter portguid 0xe41d2d030067b7dd: 'node035 HCA-1'
0x0010 025 # Channel Adapter portguid 0x7cfe9003005843f1: 'node030 HCA-1'
0x0011 011 # Channel Adapter portguid 0x7cfe9003002687f9: 'node079 HCA-1'
0x0012 012 # Channel Adapter portguid 0x7cfe9003002687fd: 'node080 HCA-1'
18 lids dumped
Unicast lids [0-18] of switch Lid 10 guid 0xe41d2d0300bfb960 ('SwitchIB Mellanox Technologies'):
0x0001 024 # Channel Adapter portguid 0x7cfe9003005845fd: 'node002 HCA-1'
0x0002 012 # Switch portguid 0x7cfe900300198b00: 'MF0;rack2-switch1:MSB7700/U1'
0x0003 011 # Channel Adapter portguid 0x7cfe900300268811: 'node076 HCA-1'
0x0004 011 # Channel Adapter portguid 0x7cfe900300268a39: 'node072 HCA-1'
0x0005 026 # Channel Adapter portguid 0xe41d2d030062113f: 'node033 HCA-1'
0x0006 023 # Switch portguid 0xe41d2d0300bfaf40: 'SwitchIB Mellanox Technologies'
0x0007 012 # Channel Adapter portguid 0x7cfe90030026885d: 'node075 HCA-1'
0x0008 027 # Switch portguid 0xe41d2d0300b13660: 'MF0;rack1-switch2:MSB7700/U1'
0x000a 000 # Switch portguid 0xe41d2d0300bfb960: 'SwitchIB Mellanox Technologies'
0x000c 010 # Channel Adapter portguid 0x7cfe900300268999: 'node071 HCA-1'
0x000d 021 # Channel Adapter portguid 0x7cfe9003005845c5: 'node007 HCA-1'
0x000e 029 # Channel Adapter portguid 0xe41d2d030067b7c9: 'node034 HCA-1'
0x000f 029 # Channel Adapter portguid 0xe41d2d030067b7dd: 'node035 HCA-1'
0x0010 029 # Channel Adapter portguid 0x7cfe9003005843f1: 'node030 HCA-1'
0x0011 012 # Channel Adapter portguid 0x7cfe9003002687f9: 'node079 HCA-1'
0x0012 011 # Channel Adapter portguid 0x7cfe9003002687fd: 'node080 HCA-1'
18 lids dumped
Unicast lids [0-18] of switch Lid 11 guid 0xe41d2d0300bfb980 ('SwitchIB Mellanox Technologies'):
0x0001 020 # Channel Adapter portguid 0x7cfe9003005845fd: 'node002 HCA-1'
0x0002 008 # Switch portguid 0x7cfe900300198b00: 'MF0;rack2-switch1:MSB7700/U1'
0x0003 010 # Channel Adapter portguid 0x7cfe900300268811: 'node076 HCA-1'
0x0004 012 # Channel Adapter portguid 0x7cfe900300268a39: 'node072 HCA-1'
0x0005 028 # Channel Adapter portguid 0xe41d2d030062113f: 'node033 HCA-1'
0x0006 022 # Switch portguid 0xe41d2d0300bfaf40: 'SwitchIB Mellanox Technologies'
0x0007 012 # Channel Adapter portguid 0x7cfe90030026885d: 'node075 HCA-1'
0x0008 025 # Switch portguid 0xe41d2d0300b13660: 'MF0;rack1-switch2:MSB7700/U1'
0x000b 000 # Switch portguid 0xe41d2d0300bfb980: 'SwitchIB Mellanox Technologies'
0x000c 010 # Channel Adapter portguid 0x7cfe900300268999: 'node071 HCA-1'
0x000d 020 # Channel Adapter portguid 0x7cfe9003005845c5: 'node007 HCA-1'
0x000e 028 # Channel Adapter portguid 0xe41d2d030067b7c9: 'node034 HCA-1'
0x000f 028 # Channel Adapter portguid 0xe41d2d030067b7dd: 'node035 HCA-1'
0x0010 030 # Channel Adapter portguid 0x7cfe9003005843f1: 'node030 HCA-1'
0x0011 012 # Channel Adapter portguid 0x7cfe9003002687f9: 'node079 HCA-1'
0x0012 010 # Channel Adapter portguid 0x7cfe9003002687fd: 'node080 HCA-1'
18 lids dumped
